<?xml version="1.0" encoding="UTF-8"?>
<svg width="24px" height="24px" viewBox="0 0 24 24" version="1.1" xmlns="http://www.w3.org/2000/svg" xmlns:xlink="http://www.w3.org/1999/xlink">
    <!-- Generator: Sketch 55.2 (78181) - https://sketchapp.com -->
    <title>Slice</title>
    <desc>Created with Sketch.</desc>
    <defs>
        <path d="M11.5088058,9.76658304 L9.07664845,13.6712901 C8.91864287,13.935464 9.01269381,14.272919 9.28732256,14.4258142 C9.37290891,14.4737636 9.46884087,14.4981906 9.56853487,14.5 L14.4309685,14.5 C14.7488607,14.4972859 15.0027982,14.2466826 15,13.941797 C14.9980957,13.8468029 14.9727019,13.7536183 14.9228549,13.6712901 L12.4906976,9.76658304 C12.3261085,9.50512327 11.9734174,9.42189041 11.7016102,9.58021379 C11.6226074,9.62725846 11.5567718,9.69058781 11.5088058,9.76658304" id="path-1"></path>
    </defs>
    <g id="1.0.0.0_intakes_Lawyer" stroke="none" stroke-width="1" fill="none" fill-rule="evenodd">
        <g id="Nav/Drop-Arrow/Up" transform="translate(12.000000, 12.000000) scale(1, -1) translate(-12.000000, -12.000000) ">
            <mask id="mask-2" fill="white">
                <use xlink:href="#path-1"></use>
            </mask>
            <use id="Mask" fill="#363636" fill-rule="evenodd" xlink:href="#path-1"></use>
            <g id="System/Grey/Hades/100" mask="url(#mask-2)" fill="#252D2F" fill-rule="evenodd">
                <rect id="Rectangle" x="0" y="0" width="24" height="24"></rect>
            </g>
        </g>
    </g>
</svg>