<?xml version="1.0" encoding="UTF-8"?>
<svg width="17px" height="16px" viewBox="0 0 17 16" version="1.1" xmlns="http://www.w3.org/2000/svg" xmlns:xlink="http://www.w3.org/1999/xlink">
    <!-- Generator: Sketch 60.1 (88133) - https://sketch.com -->
    <title>Combined Shape</title>
    <desc>Created with Sketch.</desc>
    <defs>
        <path d="M15.6363636,0 C16.0380253,0 16.3636364,0.325611091 16.3636364,0.727272727 L16.3636364,0.727272727 L16.3636364,15.2727273 C16.3636364,15.6302346 16.1056787,15.9274927 15.7657379,15.9885271 L15.7660217,16 L15.65,15.999 L15.6363636,16 C15.6316303,16 15.6269074,15.9999548 15.6221956,15.9998648 L8.016,15.999 L8,16 C7.99425232,16 7.98852021,15.9999417 7.9828044,15.9998256 L0.743,15.999 L0.727272727,16 C0.721525044,16 0.715792933,15.9999417 0.710077127,15.9998256 L0.68589764,16 C0.302995057,15.9797181 0,15.7010223 0,15.3135608 L0,15.3135608 L0,5.72727273 C0,5.32561109 0.325611091,5 0.727272727,5 L0.727272727,5 L4,5 L4,0.727272727 C4,0.359082894 4.27360376,0.054796644 4.62858613,0.00663914278 L4.72727273,0 Z M12.1991864,11.6363636 L10.744641,11.6363636 C10.3429793,11.6363636 10.0173682,11.9619747 10.0173682,12.3636364 C10.0173682,12.765298 10.3429793,13.0909091 10.744641,13.0909091 L12.1991864,13.0909091 C12.6008481,13.0909091 12.9264591,12.765298 12.9264591,12.3636364 C12.9264591,11.9619747 12.6008481,11.6363636 12.1991864,11.6363636 Z M12.3636364,8.72727273 L10.9090909,8.72727273 C10.5074293,8.72727273 10.1818182,9.05288382 10.1818182,9.45454545 C10.1818182,9.85620709 10.5074293,10.1818182 10.9090909,10.1818182 L12.3636364,10.1818182 C12.765298,10.1818182 13.0909091,9.85620709 13.0909091,9.45454545 C13.0909091,9.05288382 12.765298,8.72727273 12.3636364,8.72727273 Z M12.3636364,5.81818182 L10.9090909,5.81818182 C10.5074293,5.81818182 10.1818182,6.14379291 10.1818182,6.54545455 C10.1818182,6.94711618 10.5074293,7.27272727 10.9090909,7.27272727 L12.3636364,7.27272727 C12.765298,7.27272727 13.0909091,6.94711618 13.0909091,6.54545455 C13.0909091,6.14379291 12.765298,5.81818182 12.3636364,5.81818182 Z M12.3636364,2.90909091 L10.9090909,2.90909091 C10.5074293,2.90909091 10.1818182,3.234702 10.1818182,3.63636364 C10.1818182,4.03802527 10.5074293,4.36363636 10.9090909,4.36363636 L12.3636364,4.36363636 C12.765298,4.36363636 13.0909091,4.03802527 13.0909091,3.63636364 C13.0909091,3.234702 12.765298,2.90909091 12.3636364,2.90909091 Z" id="path-1"></path>
    </defs>
    <g id="1440px" stroke="none" stroke-width="1" fill="none" fill-rule="evenodd">
        <g id="Group-identifier'" transform="translate(-503.000000, -637.000000)">
            <g id="Member-Contact-Card" transform="translate(160.000000, 617.000000)">
                <g id="Nav/Building" transform="translate(343.000000, 20.000000)">
                    <mask id="mask-2" fill="white">
                        <use xlink:href="#path-1"></use>
                    </mask>
                    <use id="Combined-Shape" fill="#1B3DA8" fill-rule="nonzero" xlink:href="#path-1"></use>
                </g>
            </g>
        </g>
    </g>
</svg>