<?xml version="1.0" encoding="UTF-8"?>
<svg width="14px" height="16px" viewBox="0 0 14 16" version="1.1" xmlns="http://www.w3.org/2000/svg" xmlns:xlink="http://www.w3.org/1999/xlink">
    <!-- Generator: Sketch 59.1 (86144) - https://sketch.com -->
    <title>Path</title>
    <desc>Created with Sketch.</desc>
    <g id="1440px" stroke="none" stroke-width="1" fill="none" fill-rule="evenodd" stroke-linecap="round" stroke-linejoin="round">
        <g id="2.0_Resolutions_People" transform="translate(-349.000000, -208.000000)" fill="#A073BC" stroke="#A073BC" stroke-width="1.4">
            <g id="Tickets" transform="translate(330.000000, 191.000000)">
                <g id="Ticket/Basic">
                    <g id="Group" transform="translate(20.000000, 14.000000)">
                        <g id="shield" transform="translate(0.000000, 4.000000)">
                            <path d="M6,14 C6,14 12,11.2 12,7 L12,2.1 L6,0 L0,2.1 L0,7 C0,11.2 6,14 6,14 Z" id="Path"></path>
                        </g>
                    </g>
                </g>
            </g>
        </g>
    </g>
</svg>